; Engine configuration file.
; It's best edited using the editor UI and not directly,
; since the parameters that go here are not all obvious.
;
; Format:
;   [section] ; section goes between []
;   param=value ; assign values to parameters

config_version=4

_global_script_classes=[ {
"base": "Node",
"class": "Asset",
"language": "GDScript",
"path": "res://Asset.gd"
}, {
"base": "InputEventAction",
"class": "InputEventMultiScreenDrag",
"language": "GDScript",
"path": "res://plugins/Godot-Touch-Input-Manager/CustomInputEvents/InputEventMultiScreenDrag.gd"
}, {
"base": "InputEventAction",
"class": "InputEventScreenPinch",
"language": "GDScript",
"path": "res://plugins/Godot-Touch-Input-Manager/CustomInputEvents/InputEventScreenPinch.gd"
}, {
"base": "InputEventAction",
"class": "InputEventScreenTwist",
"language": "GDScript",
"path": "res://plugins/Godot-Touch-Input-Manager/CustomInputEvents/InputEventScreenTwist.gd"
}, {
"base": "InputEventAction",
"class": "InputEventSingleScreenDrag",
"language": "GDScript",
"path": "res://plugins/Godot-Touch-Input-Manager/CustomInputEvents/InputEventSingleScreenDrag.gd"
}, {
"base": "InputEventAction",
"class": "InputEventSingleScreenTap",
"language": "GDScript",
"path": "res://plugins/Godot-Touch-Input-Manager/CustomInputEvents/InputEventSingleScreenTap.gd"
}, {
"base": "InputEventAction",
"class": "InputEventSingleScreenTouch",
"language": "GDScript",
"path": "res://plugins/Godot-Touch-Input-Manager/CustomInputEvents/InputEventSingleScreenTouch.gd"
} ]
_global_script_class_icons={
"Asset": "",
"InputEventMultiScreenDrag": "",
"InputEventScreenPinch": "",
"InputEventScreenTwist": "",
"InputEventSingleScreenDrag": "",
"InputEventSingleScreenTap": "",
"InputEventSingleScreenTouch": ""
}

[application]

config/name="Ready Table Top- Godot Prototype"
run/main_scene="res://Main.tscn"

[autoload]

InputManager="*res://plugins/Godot-Touch-Input-Manager/InputManager.gd"

[display]

window/dpi/allow_hidpi=true
window/stretch/mode="2d"

[rendering]

environment/default_environment="res://default_env.tres"
