[gd_scene load_steps=2 format=2]

[ext_resource path="res://RTT_MapCameraTogglePanel.gd" type="Script" id=1]

[node name="RTT_MapCameraTogglePanel" type="Panel"]
margin_left = 643.0
margin_top = 242.0
margin_right = 785.0
margin_bottom = 501.0
script = ExtResource( 1 )
__meta__ = {
"_edit_use_anchors_": false
}
